{
  "ru": {
    "header": {
      "list": "Команда",
      "create": "Пригласить в команду",
      "update": "Редактировать",
      "delete": "Удалить из команды",
      "history": "История изменений"
    },
    "button": {
      "cancel": "Отмена",
      "create": "Создать",
      "update": "Обновить",
      "delete": "Удалить",
      "ok": "OK"
    },
    "placeholder": {
      "search": "Поиск"
    },
    "message": {
      "not_deletable": "Мы не можем удалить пользователя - он используется в системе. ",
      "approve_delete": "Вы уверены, что хотите удалить пользолвателя",
      "created": "Пользователь успешно добавлен",
      "updated": "Пользователь успешно обновлен",
      "deleted": "Пользователь успешно удален"
    }
  },
  "en": {
    "header": {
      "list": "Team",
      "create": "Invite in the team ",
      "update": "Update",
      "delete": "Remove from the team",
      "history": "Log"
    },
    "button": {
      "cancel": "Cancel",
      "create": "Create",
      "update": "Update",
      "delete": "Delete",
      "ok": "OK"
    },
    "placeholder": {
      "search": "Search"
    },
    "message": {
      "not_deletable": "We can't delete this User — it's used by the app. ",
      "approve_delete": "Are you sure you want to delete User",
      "created": "User is successfully added",
      "updated": "User is successfully updated",
      "deleted": "User is successfully removed"
    }
  }
}

