{
  "ru": {
    "header": {
      "list": "Список брендов",
      "create": "Создать бренд",
      "update": "Редактировать бренд",
      "delete": "Удалить бренд",
      "history": "История изменений"
    },
    "button": {
      "cancel": "Отмена",
      "create": "Создать",
      "update": "Обновить",
      "delete": "Удалить",
      "ok": "OK"
    },
    "placeholder": {
      "search": "Поиск"
    },
    "message": {
      "not_deletable": "Мы не можем удалить бренд - он используется в системе. ",
      "approve_delete": "Вы уверены, что хотите удалить бренд",
      "created": "Бренд успешно создан",
      "updated": "Бренд успешно обновлен",
      "deleted": "Бренд успешно удален"
    }
  },
  "en": {
    "header": {
      "list": "Brands list",
      "create": "Brand create",
      "update": "Brand update",
      "delete": "Brand delete",
      "history": "Log"
    },
    "button": {
      "cancel": "Cancel",
      "create": "Create",
      "update": "Update",
      "delete": "Delete",
      "ok": "OK"
    },
    "placeholder": {
      "search": "Search"
    },
    "message": {
      "not_deletable": "We can't delete this Brand  — it's used by the app.",
      "approve_delete": "Are you sure you want to delete Brand ",
      "created": "Brand is successfully created",
      "updated": "Brand is successfully updated",
      "deleted": "Brand is successfully deleted"
    }
  }
}

