{
  "ru": {
    "header": {
      "list": "Список ОПФ",
      "create": "Создать ОПФ",
      "update": "Редактировать ОПФ",
      "delete": "Удалить ОПФ",
      "history": "История изменений"
    },
    "button": {
      "cancel": "Отмена",
      "create": "Создать",
      "update": "Обновить",
      "delete": "Удалить",
      "ok": "OK"
    },
    "placeholder": {
      "search": "Поиск"
    },
    "message": {
      "not_deletable": "Мы не можем удалить ОПФ - она используется в системе. Сначала удалите все связанные транзакции.",
      "approve_delete": "Вы уверены, что хотите удалить ОПФ",
      "created": "ОПФ успешно создана",
      "updated": "ОПФ успешно обновлена",
      "deleted": "ОПФ успешно удалена"
    }
  },
  "en": {
    "header": {
      "list": "Legal forms list",
      "create": "Legal form create",
      "update": "Legal form update",
      "delete": "Legal form delete",
      "history": "Log"
    },
    "button": {
      "cancel": "Cancel",
      "create": "Create",
      "update": "Update",
      "delete": "Delete",
      "ok": "OK"
    },
    "placeholder": {
      "search": "Search"
    },
    "message": {
      "not_deletable": "We can't delete this legal form— it's used by the app. Before continue — delete all connected transactions.",
      "approve_delete": "Are you sure you want to delete legal form",
      "created": "Legal form is successfully created",
      "updated": "Legal form is successfully updated",
      "deleted": "Legal form is successfully deleted"
    }
  }
}

