{
  "ru": {
    "header": "Отчеты",
    "subheader": {
      "classic": "Классические отчеты",
      "effectivness": "Эффективность"
    },
    "menu": {
      "pl": "Отчет о прибыли и убытках (P&L)",
      "cashflow": "Отчет о ДДС (Cashflow)",
      "subcontractors": "Отчет по контрагентам",
      "brands": "Отчет по брендам"
    }
  },
  "en": {
    "header": "Reports",
     "subheader": {
      "classic": "Classic reports",
      "effectiveness": "Effectiveness"
    },
    "menu": {
      "pl": "P&L report",
      "cashflow": "Cashflow report",
      "subcontractors": "Subcontractors report",
      "brands": "Brand report"
    }
  }
}

