{
  "ru": {
    "header": {
      "list": "Список типов налогов",
      "create": "Создать тип налога",
      "update": "Редактировать тип налога",
      "delete": "Удалить тип налога",
      "history": "История изменений"
    },
    "button": {
      "cancel": "Отмена",
      "create": "Создать",
      "update": "Обновить",
      "delete": "Удалить",
      "ok": "OK"
    },
    "placeholder": {
      "search": "Поиск"
    },
    "message": {
      "not_deletable": "Мы не можем удалить тип налога - он используется в системе.",
      "approve_delete": "Вы уверены, что хотите удалить тип налога",
      "created": "Тип налога успешно создан",
      "updated": "Тип налога успешно обновлен",
      "deleted": "Тип налога успешно удален"
    }
  },
  "en": {
    "header": {
      "list": "Taxe types list",
      "create": "Taxe type create",
      "update": "Taxe type update",
      "delete": "Taxe type delete",
      "history": "Log"
    },
    "button": {
      "cancel": "Cancel",
      "create": "Create",
      "update": "Update",
      "delete": "Delete",
      "ok": "OK"
    },
    "placeholder": {
      "search": "Search"
    },
    "message": {
      "not_deletable": "We can't delete this taxe type— it's used by the app.",
      "approve_delete": "Are you sure you want to delete taxe type",
      "created": "Taxe type is successfully created",
      "updated": "Taxe type is successfully updated",
      "deleted": "Taxe type is successfully deleted"
    }
  }
}

