{
  "ru": {
    "header": {
      "list": "Мой профиль",
      "update": "Редактировать профиль"
    },
    "button": {
      "cancel": "Отмена",
      "update": "Обновить",
      "ok": "OK"
    },
    "body": {
      "joined": "Присоединился",
      "unit": "Юнит",
      "access_dashboard": "Доступ к Dashboard",
      "access_documents": "Доступ к Документам",
      "access_settings": "Доступ к Настройкам",
      "access_projects": "Доступ к Проектам и транзакциям",
      "access_reports": "Доступ к Отчетам",
      "access_users": "Доступ к Пользователям",
      "access_can_edit": "Может блокировать редактирование и скрывать",
      "alert": "Изменения в профиле коснутся всех аккаунтов в которые вы подключены."
    },
    "message": {
      "updated": "Ваши данные успешно обновлены"
    }
  },
  "en": {
    "header": {
      "list": "My profile",
      "update": "Update profile"
    },
    "button": {
      "cancel": "Cancel",
      "update": "Update",
      "ok": "OK"
    },
    "body": {
      "joined": "Joined",
      "unit": "Unit",
      "access_dashboard": "Dashboard access",
      "access_documents": "Documents access",
      "access_settings": "Settings access",
      "access_projects": "Projects and transactions access",
      "access_reports": "Reports access",
      "access_users": "Users access",
      "access_can_edit": "Can block editing and hide",
      "alert": "Changes in the profile will affect all connected accounts."
    },
    "message": {
      "updated": "Your profile is updated"
    }
  }
}

