{
  "ru": {
    "header": {
      "list": "Список типов контрагентов",
      "create": "Создать тип контрагента",
      "update": "Редактировать тип контрагента",
      "delete": "Удалить тип контрагента",
      "history": "История изменений"
    },
    "button": {
      "cancel": "Отмена",
      "create": "Создать",
      "update": "Обновить",
      "delete": "Удалить",
      "ok": "OK"
    },
    "placeholder": {
      "search": "Поиск"
    },
    "message": {
      "not_deletable": "Мы не можем удалить тип контрагента - он используется в системе. Сначала удалите контрагентов.",
      "approve_delete": "Вы уверены, что хотите удалить тип контрагента",
      "created": "Тип контрагента успешно создан",
      "updated": "Тип контрагента успешно обновлен",
      "deleted": "Тип контрагента успешно удален"
    }
  },
  "en": {
    "header": {
      "list": "Subcontractors types list",
      "create": "Subcontractor type create",
      "update": "Subcontractor type update",
      "delete": "Subcontractor type delete",
      "history": "Log"
    },
    "button": {
      "cancel": "Cancel",
      "create": "Create",
      "update": "Update",
      "delete": "Delete",
      "ok": "OK"
    },
    "placeholder": {
      "search": "Search"
    },
    "message": {
      "not_deletable": "We can't delete this subcontractor type — it's used by the app. Before continue — delete all subcontractors.",
      "approve_delete": "Are you sure you want to delete subcontractor type",
      "created": "Subcontractor type is successfully created",
      "updated": "Subcontractor type is successfully updated",
      "deleted": "Subcontractor type is successfully deleted"
    }
  }
}

