<?xml version="1.0" encoding="utf-8"?>
<!-- Generator: Adobe Illustrator 22.0.1, SVG Export Plug-In . SVG Version: 6.00 Build 0)  -->
<svg version="1.1" id="Layer_1" xmlns="http://www.w3.org/2000/svg" xmlns:xlink="http://www.w3.org/1999/xlink" x="0px" y="0px"
	 viewBox="0 0 512 512" style="enable-background:new 0 0 512 512;" xml:space="preserve">
<style type="text/css">
	.st0{fill:#B4B4B4;}
</style>
<path class="st0" d="M160,240v32c0,8.8-7.2,16-16,16h-32c-8.8,0-16-7.2-16-16v-32c0-8.8,7.2-16,16-16h32
	C152.8,224,160,231.2,160,240z M144,352h-32c-8.8,0-16,7.2-16,16v32c0,8.8,7.2,16,16,16h32c8.8,0,16-7.2,16-16v-32
	C160,359.2,152.8,352,144,352z M272,224h-32c-8.8,0-16,7.2-16,16v32c0,8.8,7.2,16,16,16h32c8.8,0,16-7.2,16-16v-32
	C288,231.2,280.8,224,272,224z M272,352h-32c-8.8,0-16,7.2-16,16v32c0,8.8,7.2,16,16,16h32c8.8,0,16-7.2,16-16v-32
	C288,359.2,280.8,352,272,352z M400,224h-32c-8.8,0-16,7.2-16,16v32c0,8.8,7.2,16,16,16h32c8.8,0,16-7.2,16-16v-32
	C416,231.2,408.8,224,400,224z M400,352h-32c-8.8,0-16,7.2-16,16v32c0,8.8,7.2,16,16,16h32c8.8,0,16-7.2,16-16v-32
	C416,359.2,408.8,352,400,352z M112,96h32c8.8,0,16-7.2,16-16V16c0-8.8-7.2-16-16-16h-32c-8.8,0-16,7.2-16,16v64
	C96,88.8,103.2,96,112,96z M512,128v320c0,35.3-28.7,64-64,64H64c-35.3,0-64-28.7-64-64V128c0-35.3,28.7-64,64-64h16v16
	c0,17.6,14.4,32,32,32h32c17.6,0,32-14.4,32-32V64h160v16c0,17.6,14.4,32,32,32h32c17.6,0,32-14.4,32-32V64h16
	C483.3,64,512,92.7,512,128z M480,192c0-17.6-14.3-32-32-32H64c-17.6,0-32,14.4-32,32v256c0,17.7,14.4,32,32,32h384
	c17.7,0,32-14.3,32-32V192z M368,96h32c8.8,0,16-7.2,16-16V16c0-8.8-7.2-16-16-16h-32c-8.8,0-16,7.2-16,16v64
	C352,88.8,359.2,96,368,96z"/>
</svg>
