<?xml version="1.0" encoding="utf-8"?>
<!-- Generator: Adobe Illustrator 22.1.0, SVG Export Plug-In . SVG Version: 6.00 Build 0)  -->
<svg version="1.1" id="Layer_1" xmlns="http://www.w3.org/2000/svg" xmlns:xlink="http://www.w3.org/1999/xlink" x="0px" y="0px"
	 viewBox="0 0 53.1 11.6" style="enable-background:new 0 0 53.1 11.6;" xml:space="preserve">
<g>
	<path d="M0.7,8.3C1,8.3,1.2,8.2,1.2,8c0.1-0.2,0.1-0.4,0.1-0.8V4l-0.9,0v-1h0.9C1.5,1,2.5,0,4.5,0c0.7,0,1.2,0.1,1.6,0.2
		c0.4,0.2,0.6,0.4,0.8,0.6s0.2,0.4,0.2,0.6C7.1,1.6,7,1.8,6.9,2C6.7,2.1,6.6,2.2,6.3,2.2C6.1,2.2,5.9,2.1,5.8,2
		C5.6,1.9,5.6,1.7,5.6,1.5c0-0.1,0-0.2,0-0.3C5.5,1.1,5.4,1.1,5.2,1S4.8,0.9,4.5,0.9c-0.6,0-1,0.2-1.2,0.5S3,2.2,3,2.8v0.3h1h1
		c0.4,0,0.7,0,1,0s0.4,0,0.4-0.1h0.6v4.2c0,0.4,0,0.7,0,1.1c0.3,0,0.5,0,0.8,0v0.9H4.7V8.3c0.2,0,0.4,0,0.5-0.1
		C5.3,8.1,5.3,8,5.4,7.8c0-0.1,0-0.3,0-0.6V5c0-0.4,0-0.7,0-1L3.1,4l0,3.1c0,0.4,0,0.8,0,1.1c0.3,0,0.5,0,0.8,0v0.9H0.7V8.3z"/>
	<path d="M8.6,8.3c0.3,0,0.5-0.1,0.6-0.3c0.1-0.2,0.1-0.4,0.1-0.8v-2c0-0.4,0-0.7,0-1l-0.8,0V3.3c0.5,0,0.9,0,1.2-0.1
		c0.3-0.1,0.5-0.2,0.6-0.3H11c0,0,0,0.2,0,0.6h0c0.2-0.2,0.5-0.3,0.9-0.5c0.3-0.1,0.6-0.2,0.9-0.2c0.7,0,1.2,0.2,1.6,0.6
		s0.5,1.1,0.5,2v1.6c0,0.4,0,0.7,0,1.1c0.3,0,0.5,0,0.8,0v0.9h-3.1V8.3c0.3,0,0.5-0.1,0.6-0.3c0.1-0.2,0.1-0.4,0.1-0.8l0-1.7
		c0-0.5-0.1-0.9-0.2-1.2C12.7,4.1,12.5,4,12.1,4c-0.2,0-0.4,0-0.6,0.1c-0.2,0.1-0.4,0.2-0.5,0.3v2.7c0,0.4,0,0.7,0,1.1
		c0.3,0,0.5,0,0.8,0v0.9H8.6V8.3z"/>
</g>
<g>
	<path d="M19.3,1.9c-1,0-1.5,0.4-1.5,1.1c0,0.4,0.1,0.6,0.4,0.8c0.2,0.2,0.8,0.3,1.6,0.6c0.8,0.2,1.4,0.5,1.7,0.8S22,5.9,22,6.6
		c0,0.9-0.2,1.5-0.7,1.9c-0.5,0.4-1.2,0.6-2,0.6c-0.7,0-1.4-0.1-2.3-0.2l-0.4-0.1l0.1-1.1C17.8,7.9,18.6,8,19.2,8
		c1,0,1.5-0.4,1.5-1.3c0-0.3-0.1-0.6-0.3-0.8c-0.2-0.2-0.7-0.3-1.5-0.5c-0.8-0.2-1.4-0.5-1.8-0.8c-0.4-0.3-0.6-0.9-0.6-1.6
		s0.2-1.3,0.7-1.7s1.2-0.6,2-0.6c0.6,0,1.3,0.1,2.2,0.2L21.8,1l-0.1,1.1C20.6,1.9,19.8,1.9,19.3,1.9z"/>
	<path d="M22.8,3.1h0.7l1.6,5.4h0.4l1.6-5.4h0.7l-2.6,8.7h-0.7l0.8-2.7h-0.8L22.8,3.1z"/>
	<path d="M30.9,3.6c-0.9,0-1.4,0.3-1.4,1c0,0.3,0.1,0.5,0.3,0.7s0.7,0.3,1.4,0.4s1.2,0.3,1.5,0.5c0.3,0.2,0.5,0.6,0.5,1.2
		c0,0.6-0.2,1.1-0.6,1.3c-0.4,0.3-1,0.4-1.7,0.4c-0.4,0-1-0.1-1.7-0.2l-0.3,0l0-0.6c0.9,0.1,1.6,0.2,2.1,0.2c0.5,0,0.9-0.1,1.1-0.3
		c0.3-0.2,0.4-0.5,0.4-0.9s-0.1-0.7-0.3-0.8c-0.2-0.1-0.7-0.3-1.4-0.4C30,6.2,29.4,6,29.1,5.8s-0.4-0.6-0.4-1.2c0-0.6,0.2-1,0.6-1.3
		C29.7,3.1,30.2,3,30.8,3c0.5,0,1.1,0.1,1.8,0.2l0.3,0l0,0.6C32.1,3.7,31.4,3.6,30.9,3.6z"/>
	<path d="M37.6,3.7h-2v3c0,0.8,0.1,1.3,0.2,1.5c0.1,0.2,0.4,0.4,0.8,0.4l1.1-0.1l0,0.6c-0.5,0.1-0.9,0.1-1.2,0.1
		c-0.6,0-1-0.1-1.3-0.4C35,8.4,34.9,7.9,34.9,7V3.7H34V3.1h0.9V1.2h0.7v1.9h2V3.7z"/>
	<path d="M42.7,8.5l0.4,0l0,0.6c-0.9,0.1-1.7,0.2-2.3,0.2c-0.9,0-1.5-0.3-1.8-0.8c-0.3-0.5-0.5-1.3-0.5-2.3c0-2.1,0.8-3.1,2.5-3.1
		c0.8,0,1.4,0.2,1.8,0.7s0.6,1.2,0.6,2.2l0,0.6h-4.1c0,0.7,0.1,1.3,0.4,1.6s0.7,0.5,1.3,0.5S42.1,8.5,42.7,8.5z M39.2,5.8h3.4
		c0-0.8-0.1-1.4-0.4-1.7C42,3.7,41.6,3.6,41,3.6c-0.6,0-1,0.2-1.3,0.5C39.4,4.4,39.2,5,39.2,5.8z"/>
	<path d="M45.5,9.1h-0.7v-6h0.7v0.4c0.6-0.4,1.3-0.6,1.9-0.6s1.2,0.2,1.5,0.6c0.3-0.2,0.6-0.3,1-0.5s0.8-0.2,1.1-0.2
		c0.8,0,1.3,0.2,1.6,0.6C53,4,53.1,4.8,53.1,5.9v3.2h-0.7V5.9c0-0.9-0.1-1.5-0.3-1.9C52,3.8,51.6,3.6,51,3.6c-0.3,0-0.6,0-0.9,0.1
		c-0.3,0.1-0.5,0.2-0.7,0.3l-0.2,0.1c0.1,0.3,0.2,0.9,0.2,1.8v3.1h-0.7V6c0-0.9-0.1-1.6-0.3-1.9c-0.2-0.3-0.5-0.5-1.1-0.5
		c-0.3,0-0.6,0-0.9,0.1S45.9,3.9,45.8,4l-0.2,0.1V9.1z"/>
</g>
<rect y="10.9" width="21.1" height="0.8"/>
</svg>
