<?xml version="1.0" encoding="utf-8"?>
<!-- Generator: Adobe Illustrator 22.0.1, SVG Export Plug-In . SVG Version: 6.00 Build 0)  -->
<svg version="1.1" id="Layer_1" xmlns="http://www.w3.org/2000/svg" xmlns:xlink="http://www.w3.org/1999/xlink" x="0px" y="0px"
	 viewBox="0 0 240.8 240.8" style="enable-background:new 0 0 240.8 240.8;" xml:space="preserve">
<style type="text/css">
	.st0{display:none;}
	.st1{display:inline;}
	.st2{fill:#DC1DC2;}
	.st3{fill:#31AEFE;}
</style>
<g id="Capa_1" class="st0">
	<g class="st1">
		<path id="Expand_More" class="st2" d="M220.1,57.7l-99.7,99.7L20.7,57.7c-4.8-4.8-12.4-4.8-17.2,0c-4.7,4.8-4.7,12.5,0,17.2
			l108.3,108.3l0,0l0,0c4.7,4.8,12.4,4.8,17.2,0L237.3,74.9c4.7-4.8,4.7-12.5,0-17.2C232.5,52.9,224.8,52.9,220.1,57.7z"/>
	</g>
</g>
<g id="Layer_2_1_">
	<polygon class="st3" points="120.5,14.3 74,94.8 167,94.8 	"/>
	<polygon class="st3" points="120.5,232.1 167,151.5 74,151.5 	"/>
</g>
</svg>
